<svg class="icon" width="24" height="24" fill="currentColor" overflow="hidden" version="1.1" viewBox="0 0 24 24" xmlns="http://www.w3.org/2000/svg">
 <path d="m7.7515 15.825h-2.5501c-1.3771 0-2.5841-1.071-2.7541-2.4311l-0.42502-2.5416c-0.0935-0.72253 0.1105-1.4026 0.55252-1.8956s1.088-0.78203 1.7766-0.78203h5.1002c0.70553 0 1.3431 0.29751 1.7511 0.81603 0.0935 0.12751 0.17851 0.26351 0.24651 0.41652 0.36551-0.0765 0.73953-0.0765 1.0965 0 0.068-0.15301 0.15301-0.28901 0.25501-0.41652 0.39952-0.51852 1.037-0.81603 1.7511-0.81603h5.1002c0.68853 0 1.3346 0.28901 1.7766 0.78203 0.43352 0.49302 0.63752 1.173 0.55252 1.8616l-0.43352 2.6096c-0.16151 1.326-1.3771 2.3971-2.7456 2.3971h-2.5501c-1.3261 0-2.6181-1.0115-2.9411-2.2951l-0.76503-2.3036c-0.32301-0.23801-0.77353-0.23801-1.0965 0l-0.78203 2.3631c-0.30601 1.2326-1.5896 2.2356-2.9156 2.2356z" fill="#000000" stroke-width=".019923"/>
</svg>
